$date
	Sat Apr 11 16:09:19 2020
$end
$version
	Icarus Verilog
$end
$timescale
	1ns
$end
$scope module mux2to1_tb $end
$var wire 16 ! y [15:0] $end
$var reg 16 " d0 [15:0] $end
$var reg 16 # d1 [15:0] $end
$var reg 1 $ s $end
$scope module uut $end
$var wire 16 % d0 [15:0] $end
$var wire 16 & d1 [15:0] $end
$var wire 1 $ s $end
$var reg 16 ' y [15:0] $end
$upscope $end
$upscope $end
$enddefinitions $end
#0
$dumpvars
b1000000 '
b100000 &
b1000000 %
0$
b1000000 #
b100000 "
b1000000 !
$end
#20
b100000 !
b100000 '
1$
#30
b1100000 !
b1100000 '
0$
b1100000 #
b1100000 %
#40
